{
  "Name":"TrainTestSplit",
  "RuntimeId":"1",
  "Param":{
    "test_size":{
      "Default":"0.3",
      "Type":"float"
    }
  },
  "Version":"0.1",
  "Description":"将数据分为训练集和测试集",
  "Cmd":"python main.py",
  "Input":{
    "x":["pkl"],
    "y":["pkl"]
  },
  "Output":{
    "xtrain":["pkl"],
    "xtest":["pkl"],
    "ytrain":["pkl"],
    "ytest":["pkl"]
  },
  "CategoryTags":[],
  "languageType":"python"
}