{
  "Name":"RFE",
  "RuntimeId":"1",
  "Param":{
    "step":{
      "Default":"1",
      "Type":"int"
    }
  },
  "Version":"0.6",
  "Description":"递归特征消除法(Recursive Feature Elimination): 一种特征选择方法，基于算法输出的变量系数或者特征重要性，逐步地删除重要性小的变量。",
  "Cmd":"python main.py",
  "Input":{
    "x":["pkl"],
    "y":["pkl"]
  },
  "Output":{
    "rfe_columns":["pkl"],
    "meta_json":["json"],
    "df_rfe":["str"]
  },
  "CategoryTags":["特征工程-特征消除","算法封装-py2.7"],
  "languageType":"python"
}