{
  "RuntimeId":"1",
  "Param":{
    "learning_rate":{
      "Default":"1.0",
      "Type":"float"
    },
    "n_estimators":{
      "Default":"50",
      "Type":"float"
    }
  },
  "languageType":"python",
  "Version":"0.0",
  "Description":"一种集成算法",
  "CategoryTags":"[]",
  "Name":"AdaBoost",
  "Output":{
    "adaboost_classifier":["pkl"]
  },
  "Cmd":"python main.py",
  "Input":{
    "x_train":["pkl"],
    "y_train":["pkl"]
  }
}