{
  "Name":"AsType",
  "RuntimeId":"1",
  "Param":{
    "col":{
      "Default":"'Geography','Gender','Exited'",
      "Type":"str"
    },
    "type":{
      "Default":"'object'",
      "Type":"str"
    }
  },
  "Version":"0.4",
  "Description":"转换变量类型",
  "Cmd":"python main.py",
  "Input":{
    "df":["pkl"]
  },
  "Output":{
    "df_new":["pkl"],
    "type":["str"]
  },
  "CategoryTags":[],
  "languageType":"python"
}