{
  "Name":"BucketLowFrequency",
  "RuntimeId":"1",
  "Param":{
    
  },
  "Version":"0.1",
  "Description":"对类别变量进行处理：对单个变量中数量较少的类合并成一类，统一赋值为99，该步骤应在对变量进行编码之后进行。",
  "Cmd":"python main.py",
  "Input":{
    "df":["pkl"]
  },
  "Output":{
    "df_new":["pkl"]
  },
  "CategoryTags":[],
  "languageType":"python"
}