{
  "RuntimeId":"1",
  "Param":{
    "lower_null_percent":{
      "Default":"10",
      "Type":"int"
    },
    "upper_null_percent":{
      "Default":"30",
      "Type":"int"
    },
    "lower_null_percent1":{
      "Default":"30",
      "Type":"int"
    },
    "upper_null_percent1":{
      "Default":"60",
      "Type":"int"
    }
  },
  "languageType":"python",
  "Version":"0.0",
  "Description":"用传播算法对缺失值进行填充。",
  "CategoryTags":"[]",
  "Name":"MissingImpute",
  "Output":{
    "df_new":["pkl"]
  },
  "Cmd":"python main.py",
  "Input":{
    "df":["pkl"]
  }
}